iron34/iron34_t2p.csv

X,CH1,Start,Increment,
Sequence,Volt,-1.300000e-02,5.000000e-05
0,2.40e-01,
1,8.00e-02,
2,2.40e-01,
3,0.00e+00,
4,2.40e-01,
5,8.00e-02,
6,2.40e-01,
7,8.00e-02,
8,2.40e-01,
9,8.00e-02,
10,2.40e-01,
11,0.00e+00,
12,2.40e-01,
13,8.00e-02,
14,8.00e-02,
15,2.40e-01,
16,2.40e-01,
17,0.00e+00,
18,2.40e-01,
19,8.00e-02,
20,2.40e-01,
21,8.00e-02,
22,2.40e-01,
23,0.00e+00,
24,0.00e+00,
25,2.40e-01,
26,2.40e-01,
27,8.00e-02,
28,0.00e+00,
29,3.20e-01,
30,2.40e-01,
31,0.00e+00,
32,2.40e-01,
33,0.00e+00,
34,0.00e+00,
35,3.20e-01,
36,0.00e+00,
37,2.40e-01,
38,2.40e-01,
39,0.00e+00,
40,2.40e-01,
41,0.00e+00,
42,0.00e+00,
43,2.40e-01,
44,2.40e-01,
45,0.00e+00,
46,2.40e-01,
47,0.00e+00,
48,0.00e+00,
49,3.20e-01,
50,0.00e+00,
51,2.40e-01,
52,0.00e+00,
53,2.40e-01,
54,0.00e+00,
55,2.40e-01,
56,2.40e-01,
57,0.00e+00,
58,0.00e+00,
59,2.40e-01,
60,2.40e-01,
61,0.00e+00,
62,0.00e+00,
63,2.40e-01,
64,2.40e-01,
65,0.00e+00,
66,2.40e-01,
67,0.00e+00,
68,0.00e+00,
69,2.40e-01,
70,2.40e-01,
71,0.00e+00,
72,0.00e+00,
73,2.40e-01,
74,2.40e-01,
75,0.00e+00,
76,0.00e+00,
77,2.40e-01,
78,0.00e+00,
79,2.40e-01,
80,0.00e+00,
81,2.40e-01,
82,2.40e-01,
83,0.00e+00,
84,2.40e-01,
85,0.00e+00,
86,2.40e-01,
87,0.00e+00,
88,2.40e-01,
89,0.00e+00,
90,2.40e-01,
91,0.00e+00,
92,2.40e-01,
93,0.00e+00,
94,2.40e-01,
95,0.00e+00,
96,2.40e-01,
97,0.00e+00,
98,0.00e+00,
99,2.40e-01,
100,0.00e+00,
101,2.40e-01,
102,2.40e-01,
103,0.00e+00,
104,0.00e+00,
105,2.40e-01,
106,0.00e+00,
107,2.40e-01,
108,0.00e+00,
109,2.40e-01,
110,0.00e+00,
111,2.40e-01,
112,0.00e+00,
113,2.40e-01,
114,0.00e+00,
115,2.40e-01,
116,0.00e+00,
117,2.40e-01,
118,0.00e+00,
119,2.40e-01,
120,0.00e+00,
121,2.40e-01,
122,0.00e+00,
123,2.40e-01,
124,0.00e+00,
125,2.40e-01,
126,0.00e+00,
127,2.40e-01,
128,0.00e+00,
129,2.40e-01,
130,0.00e+00,
131,2.40e-01,
132,0.00e+00,
133,2.40e-01,
134,0.00e+00,
135,2.40e-01,
136,0.00e+00,
137,2.40e-01,
138,0.00e+00,
139,2.40e-01,
140,0.00e+00,
141,2.40e-01,
142,0.00e+00,
143,2.40e-01,
144,0.00e+00,
145,2.40e-01,
146,0.00e+00,
147,2.40e-01,
148,0.00e+00,
149,2.40e-01,
150,0.00e+00,
151,2.40e-01,
152,0.00e+00,
153,1.60e-01,
154,0.00e+00,
155,2.40e-01,
156,0.00e+00,
157,2.40e-01,
158,0.00e+00,
159,2.40e-01,
160,0.00e+00,
161,2.40e-01,
162,0.00e+00,
163,2.40e-01,
164,0.00e+00,
165,2.40e-01,
166,0.00e+00,
167,2.40e-01,
168,0.00e+00,
169,2.40e-01,
170,0.00e+00,
171,2.40e-01,
172,0.00e+00,
173,2.40e-01,
174,0.00e+00,
175,2.40e-01,
176,0.00e+00,
177,2.40e-01,
178,0.00e+00,
179,2.40e-01,
180,0.00e+00,
181,2.40e-01,
182,2.40e-01,
183,0.00e+00,
184,2.40e-01,
185,0.00e+00,
186,2.40e-01,
187,0.00e+00,
188,0.00e+00,
189,2.40e-01,
190,2.40e-01,
191,0.00e+00,
192,0.00e+00,
193,2.40e-01,
194,2.40e-01,
195,0.00e+00,
196,2.40e-01,
197,0.00e+00,
198,2.40e-01,
199,0.00e+00,
200,2.40e-01,
201,0.00e+00,
202,0.00e+00,
203,2.40e-01,
204,2.40e-01,
205,0.00e+00,
206,0.00e+00,
207,2.40e-01,
208,0.00e+00,
209,2.40e-01,
210,2.40e-01,
211,0.00e+00,
212,2.40e-01,
213,0.00e+00,
214,2.40e-01,
215,0.00e+00,
216,2.40e-01,
217,0.00e+00,
218,0.00e+00,
219,2.40e-01,
220,2.40e-01,
221,0.00e+00,
222,0.00e+00,
223,2.40e-01,
224,0.00e+00,
225,2.40e-01,
226,0.00e+00,
227,2.40e-01,
228,0.00e+00,
229,2.40e-01,
230,8.00e-02,
231,2.40e-01,
232,2.40e-01,
233,8.00e-02,
234,2.40e-01,
235,8.00e-02,
236,2.40e-01,
237,8.00e-02,
238,2.40e-01,
239,0.00e+00,
240,2.40e-01,
241,0.00e+00,
242,2.40e-01,
243,0.00e+00,
244,0.00e+00,
245,2.40e-01,
246,2.40e-01,
247,0.00e+00,
248,2.40e-01,
249,0.00e+00,
250,2.40e-01,
251,0.00e+00,
252,2.40e-01,
253,0.00e+00,
254,0.00e+00,
255,2.40e-01,
256,2.40e-01,
257,0.00e+00,
258,0.00e+00,
259,2.40e-01,
260,-8.00e-02,
261,8.96e+00,
262,8.40e+00,
263,4.80e+00,
264,4.72e+00,
265,1.92e+00,
266,1.92e+00,
267,3.20e-01,
268,3.20e-01,
269,8.00e-02,
270,2.40e-01,
271,0.00e+00,
272,2.40e-01,
273,0.00e+00,
274,8.00e-02,
275,2.40e-01,
276,2.40e-01,
277,0.00e+00,
278,2.40e-01,
279,0.00e+00,
280,0.00e+00,
281,3.20e-01,
282,3.20e-01,
283,0.00e+00,
284,8.00e-02,
285,2.40e-01,
286,2.40e-01,
287,0.00e+00,
288,2.40e-01,
289,0.00e+00,
290,8.00e-02,
291,3.20e-01,
292,2.40e-01,
293,0.00e+00,
294,2.40e-01,
295,0.00e+00,
296,2.40e-01,
297,8.00e-02,
298,2.40e-01,
299,0.00e+00,
300,-8.00e-02,
301,1.12e+00,
302,1.04e+00,
303,4.80e-01,
304,5.60e-01,
305,8.00e-02,
306,2.40e-01,
307,8.00e-02,
308,2.40e-01,
309,8.00e-02,
310,2.40e-01,
311,8.00e-02,
312,2.40e-01,
313,8.00e-02,
314,3.20e-01,
315,8.00e-02,
316,2.40e-01,
317,8.00e-02,
318,2.40e-01,
319,8.00e-02,
320,8.00e-02,
321,3.20e-01,
322,2.40e-01,
323,8.00e-02,
324,8.00e-02,
325,3.20e-01,
326,2.40e-01,
327,8.00e-02,
328,8.00e-02,
329,2.40e-01,
330,2.40e-01,
331,8.00e-02,
332,8.00e-02,
333,8.00e-01,
334,6.40e-01,
335,2.64e+00,
336,2.64e+00,
337,5.12e+00,
338,5.12e+00,
339,6.64e+00,
340,6.64e+00,
341,5.60e+00,
342,5.76e+00,
343,3.44e+00,
344,3.44e+00,
345,1.44e+00,
346,1.52e+00,
347,1.60e-01,
348,3.20e-01,
349,8.00e-02,
350,2.40e-01,
351,0.00e+00,
352,2.40e-01,
353,0.00e+00,
354,2.40e-01,
355,8.00e-02,
356,0.00e+00,
357,2.40e-01,
358,0.00e+00,
359,2.40e-01,
360,2.40e-01,
361,0.00e+00,
362,2.40e-01,
363,0.00e+00,
364,2.40e-01,
365,0.00e+00,
366,2.40e-01,
367,0.00e+00,
368,2.40e-01,
369,0.00e+00,
370,2.40e-01,
371,0.00e+00,
372,0.00e+00,
373,2.40e-01,
374,2.40e-01,
375,0.00e+00,
376,2.40e-01,
377,0.00e+00,
378,2.40e-01,
379,0.00e+00,
380,-8.00e-02,
381,5.60e-01,
382,4.00e-01,
383,8.00e-02,
384,2.40e-01,
385,0.00e+00,
386,2.40e-01,
387,8.00e-02,
388,2.40e-01,
389,0.00e+00,
390,2.40e-01,
391,0.00e+00,
392,2.40e-01,
393,0.00e+00,
394,2.40e-01,
395,0.00e+00,
396,2.40e-01,
397,0.00e+00,
398,2.40e-01,
399,0.00e+00,
400,2.40e-01,
401,0.00e+00,
402,0.00e+00,
403,2.40e-01,
404,0.00e+00,
405,2.40e-01,
406,0.00e+00,
407,2.40e-01,
408,0.00e+00,
409,2.40e-01,
410,0.00e+00,
411,2.40e-01,
412,0.00e+00,
413,4.00e-01,
414,4.80e-01,
415,2.08e+00,
416,2.08e+00,
417,3.76e+00,
418,3.68e+00,
419,4.64e+00,
420,4.64e+00,
421,3.92e+00,
422,4.08e+00,
423,2.40e+00,
424,2.48e+00,
425,9.60e-01,
426,1.04e+00,
427,8.00e-02,
428,2.40e-01,
429,0.00e+00,
430,0.00e+00,
431,2.40e-01,
432,0.00e+00,
433,2.40e-01,
434,0.00e+00,
435,2.40e-01,
436,2.40e-01,
437,0.00e+00,
438,1.60e-01,
439,0.00e+00,
440,0.00e+00,
441,2.40e-01,
442,0.00e+00,
443,2.40e-01,
444,0.00e+00,
445,2.40e-01,
446,0.00e+00,
447,2.40e-01,
448,2.40e-01,
449,0.00e+00,
450,0.00e+00,
451,2.40e-01,
452,0.00e+00,
453,2.40e-01,
454,0.00e+00,
455,2.40e-01,
456,8.00e-02,
457,3.20e-01,
458,1.60e-01,
459,4.80e-01,
460,-8.00e-02,
461,1.20e+00,
462,1.12e+00,
463,4.80e-01,
464,7.20e-01,
465,8.00e-02,
466,2.40e-01,
467,0.00e+00,
468,0.00e+00,
469,2.40e-01,
470,0.00e+00,
471,2.40e-01,
472,2.40e-01,
473,0.00e+00,
474,2.40e-01,
475,0.00e+00,
476,2.40e-01,
477,0.00e+00,
478,2.40e-01,
479,0.00e+00,
480,2.40e-01,
481,0.00e+00,
482,2.40e-01,
483,0.00e+00,
484,2.40e-01,
485,0.00e+00,
486,0.00e+00,
487,2.40e-01,
488,0.00e+00,
489,2.40e-01,
490,0.00e+00,
491,2.40e-01,
492,0.00e+00,
493,3.20e-01,
494,1.60e-01,
495,1.44e+00,
496,1.28e+00,
497,2.56e+00,
498,2.56e+00,
499,3.28e+00,
500,3.28e+00,
501,2.72e+00,
502,2.80e+00,
503,1.76e+00,
504,1.76e+00,
505,6.40e-01,
506,6.40e-01,
507,8.00e-02,
508,0.00e+00,
509,2.40e-01,
510,0.00e+00,
511,2.40e-01,
512,2.40e-01,
513,0.00e+00,
514,0.00e+00,
515,2.40e-01,
516,2.40e-01,
517,0.00e+00,
518,0.00e+00,
519,2.40e-01,
520,0.00e+00,
521,2.40e-01,
522,8.00e-02,
523,2.40e-01,
524,2.40e-01,
525,0.00e+00,
526,2.40e-01,
527,0.00e+00,
528,2.40e-01,
529,0.00e+00,
530,2.40e-01,
531,0.00e+00,
532,0.00e+00,
533,2.40e-01,
534,2.40e-01,
535,0.00e+00,
536,0.00e+00,
537,2.40e-01,
538,8.00e-02,
539,3.20e-01,
540,-8.00e-02,
541,8.00e-01,
542,8.00e-01,
543,1.60e-01,
544,3.20e-01,
545,8.00e-02,
546,2.40e-01,
547,8.00e-02,
548,0.00e+00,
549,2.40e-01,
550,2.40e-01,
551,0.00e+00,
552,2.40e-01,
553,0.00e+00,
554,2.40e-01,
555,0.00e+00,
556,2.40e-01,
557,0.00e+00,
558,2.40e-01,
559,0.00e+00,
560,2.40e-01,
561,8.00e-02,
562,2.40e-01,
563,0.00e+00,
564,2.40e-01,
565,8.00e-02,
566,2.40e-01,
567,0.00e+00,
568,2.40e-01,
569,8.00e-02,
570,2.40e-01,
571,0.00e+00,
572,2.40e-01,
573,8.00e-02,
574,8.00e-02,
575,9.60e-01,
576,8.80e-01,
577,2.00e+00,
578,1.84e+00,
579,2.48e+00,
580,2.48e+00,
581,2.00e+00,
582,2.08e+00,
583,1.28e+00,
584,1.44e+00,
585,3.20e-01,
586,4.00e-01,
587,8.00e-02,
588,2.40e-01,
589,0.00e+00,
590,0.00e+00,
591,2.40e-01,
592,2.40e-01,
593,0.00e+00,
594,2.40e-01,
595,0.00e+00,
596,2.40e-01,
597,0.00e+00,
598,2.40e-01,
599,0.00e+00,
600,2.40e-01,
601,8.00e-02,
602,2.40e-01,
603,0.00e+00,
604,2.40e-01,
605,0.00e+00,
606,0.00e+00,
607,2.40e-01,
608,8.00e-02,
609,2.40e-01,
610,2.40e-01,
611,0.00e+00,
612,2.40e-01,
613,0.00e+00,
614,0.00e+00,
615,3.20e-01,
616,8.00e-02,
617,4.00e-01,
618,2.40e-01,
619,4.80e-01,
620,-8.00e-02,
621,1.20e+00,
622,1.20e+00,
623,4.80e-01,
624,6.40e-01,
625,8.00e-02,
626,2.40e-01,
627,0.00e+00,
628,2.40e-01,
629,8.00e-02,
630,2.40e-01,
631,0.00e+00,
632,0.00e+00,
633,2.40e-01,
634,8.00e-02,
635,2.40e-01,
636,2.40e-01,
637,8.00e-02,
638,2.40e-01,
639,0.00e+00,
640,2.40e-01,
641,0.00e+00,
642,2.40e-01,
643,8.00e-02,
644,2.40e-01,
645,8.00e-02,
646,2.40e-01,
647,8.00e-02,
648,8.00e-02,
649,2.40e-01,
650,2.40e-01,
651,8.00e-02,
652,2.40e-01,
653,8.00e-02,
654,8.00e-02,
655,6.40e-01,
656,4.80e-01,
657,1.36e+00,
658,1.28e+00,
659,1.84e+00,
660,1.92e+00,
661,1.52e+00,
662,1.60e+00,
663,8.00e-01,
664,9.60e-01,
665,1.60e-01,
666,3.20e-01,
667,8.00e-02,
668,2.40e-01,
669,8.00e-02,
670,8.00e-02,
671,2.40e-01,
672,2.40e-01,
673,8.00e-02,
674,2.40e-01,
675,8.00e-02,
676,0.00e+00,
677,3.20e-01,
678,8.00e-02,
679,2.40e-01,
680,2.40e-01,
681,8.00e-02,
682,2.40e-01,
683,8.00e-02,
684,8.00e-02,
685,2.40e-01,
686,8.00e-02,
687,3.20e-01,
688,8.00e-02,
689,3.20e-01,
690,2.40e-01,
691,0.00e+00,
692,2.40e-01,
693,0.00e+00,
694,2.40e-01,
695,0.00e+00,
696,8.00e-02,
697,3.20e-01,
698,8.00e-02,
699,3.20e-01,
700,-8.00e-02,
701,8.80e-01,
702,8.80e-01,
703,2.40e-01,
704,4.00e-01,
705,8.00e-02,
706,2.40e-01,
707,8.00e-02,
708,2.40e-01,
709,0.00e+00,
710,2.40e-01,
711,0.00e+00,
712,2.40e-01,
713,0.00e+00,
714,0.00e+00,
715,2.40e-01,
716,0.00e+00,
717,2.40e-01,
718,0.00e+00,
719,2.40e-01,
720,0.00e+00,
721,2.40e-01,
722,0.00e+00,
723,2.40e-01,
724,0.00e+00,
725,2.40e-01,
726,0.00e+00,
727,2.40e-01,
728,0.00e+00,
729,2.40e-01,
730,0.00e+00,
731,2.40e-01,
732,0.00e+00,
733,2.40e-01,
734,8.00e-02,
735,4.80e-01,
736,3.20e-01,
737,1.04e+00,
738,8.80e-01,
739,1.28e+00,
740,1.36e+00,
741,9.60e-01,
742,1.20e+00,
743,4.80e-01,
744,6.40e-01,
745,8.00e-02,
746,3.20e-01,
747,0.00e+00,
748,0.00e+00,
749,2.40e-01,
750,0.00e+00,
751,2.40e-01,
752,0.00e+00,
753,2.40e-01,
754,2.40e-01,
755,0.00e+00,
756,0.00e+00,
757,2.40e-01,
758,0.00e+00,
759,2.40e-01,
760,0.00e+00,
761,2.40e-01,
762,0.00e+00,
763,2.40e-01,
764,2.40e-01,
765,0.00e+00,
766,0.00e+00,
767,2.40e-01,
768,0.00e+00,
769,2.40e-01,
770,0.00e+00,
771,2.40e-01,
772,2.40e-01,
773,0.00e+00,
774,2.40e-01,
775,8.00e-02,
776,8.00e-02,
777,4.00e-01,
778,1.60e-01,
779,4.80e-01,
780,-1.60e-01,
781,1.04e+00,
782,9.60e-01,
783,4.00e-01,
784,4.80e-01,
785,8.00e-02,
786,2.40e-01,
787,0.00e+00,
788,2.40e-01,
789,0.00e+00,
790,0.00e+00,
791,2.40e-01,
792,2.40e-01,
793,0.00e+00,
794,2.40e-01,
795,0.00e+00,
796,0.00e+00,
797,2.40e-01,
798,2.40e-01,
799,0.00e+00,
800,0.00e+00,
801,2.40e-01,
802,0.00e+00,
803,2.40e-01,
804,0.00e+00,
805,2.40e-01,
806,0.00e+00,
807,2.40e-01,
808,0.00e+00,
809,2.40e-01,
810,0.00e+00,
811,2.40e-01,
812,0.00e+00,
813,2.40e-01,
814,0.00e+00,
815,2.40e-01,
816,8.00e-02,
817,6.40e-01,
818,4.80e-01,
819,9.60e-01,
820,1.04e+00,
821,6.40e-01,
822,7.20e-01,
823,3.20e-01,
824,4.00e-01,
825,8.00e-02,
826,2.40e-01,
827,0.00e+00,
828,0.00e+00,
829,2.40e-01,
830,0.00e+00,
831,2.40e-01,
832,0.00e+00,
833,2.40e-01,
834,0.00e+00,
835,2.40e-01,
836,0.00e+00,
837,2.40e-01,
838,0.00e+00,
839,1.60e-01,
840,0.00e+00,
841,2.40e-01,
842,0.00e+00,
843,2.40e-01,
844,0.00e+00,
845,2.40e-01,
846,0.00e+00,
847,2.40e-01,
848,0.00e+00,
849,2.40e-01,
850,0.00e+00,
851,2.40e-01,
852,0.00e+00,
853,2.40e-01,
854,2.40e-01,
855,0.00e+00,
856,8.00e-02,
857,3.20e-01,
858,3.20e-01,
859,8.00e-02,
860,-8.00e-02,
861,9.60e-01,
862,1.04e+00,
863,2.40e-01,
864,4.80e-01,
865,8.00e-02,
866,2.40e-01,
867,8.00e-02,
868,2.40e-01,
869,0.00e+00,
870,2.40e-01,
871,0.00e+00,
872,2.40e-01,
873,0.00e+00,
874,2.40e-01,
875,0.00e+00,
876,2.40e-01,
877,0.00e+00,
878,2.40e-01,
879,0.00e+00,
880,0.00e+00,
881,2.40e-01,
882,2.40e-01,
883,0.00e+00,
884,0.00e+00,
885,2.40e-01,
886,0.00e+00,
887,2.40e-01,
888,2.40e-01,
889,0.00e+00,
890,0.00e+00,
891,2.40e-01,
892,2.40e-01,
893,0.00e+00,
894,0.00e+00,
895,3.20e-01,
896,8.00e-02,
897,4.80e-01,
898,2.40e-01,
899,6.40e-01,
900,4.00e-01,
901,6.40e-01,
902,5.60e-01,
903,1.60e-01,
904,3.20e-01,
905,8.00e-02,
906,2.40e-01,
907,8.00e-02,
908,2.40e-01,
909,0.00e+00,
910,8.00e-02,
911,2.40e-01,
912,2.40e-01,
913,0.00e+00,
914,2.40e-01,
915,0.00e+00,
916,2.40e-01,
917,8.00e-02,
918,2.40e-01,
919,0.00e+00,
920,2.40e-01,
921,0.00e+00,
922,2.40e-01,
923,0.00e+00,
924,0.00e+00,
925,2.40e-01,
926,0.00e+00,
927,2.40e-01,
928,2.40e-01,
929,0.00e+00,
930,2.40e-01,
931,0.00e+00,
932,8.00e-02,
933,2.40e-01,
934,8.00e-02,
935,3.20e-01,
936,8.00e-02,
937,4.00e-01,
938,1.60e-01,
939,4.80e-01,
940,-8.00e-02,
941,1.04e+00,
942,9.60e-01,
943,2.40e-01,
944,4.80e-01,
945,8.00e-02,
946,2.40e-01,
947,8.00e-02,
948,2.40e-01,
949,8.00e-02,
950,2.40e-01,
951,8.00e-02,
952,2.40e-01,
953,8.00e-02,
954,2.40e-01,
955,0.00e+00,
956,0.00e+00,
957,2.40e-01,
958,0.00e+00,
959,2.40e-01,
960,2.40e-01,
961,8.00e-02,
962,2.40e-01,
963,0.00e+00,
964,2.40e-01,
965,0.00e+00,
966,2.40e-01,
967,8.00e-02,
968,8.00e-02,
969,2.40e-01,
970,8.00e-02,
971,2.40e-01,
972,8.00e-02,
973,2.40e-01,
974,8.00e-02,
975,2.40e-01,
976,8.00e-02,
977,4.00e-01,
978,1.60e-01,
979,5.60e-01,
980,4.80e-01,
981,1.60e-01,
982,4.00e-01,
983,8.00e-02,
984,3.20e-01,
985,8.00e-02,
986,8.00e-02,
987,2.40e-01,
988,8.00e-02,
989,2.40e-01,
990,2.40e-01,
991,8.00e-02,
992,2.40e-01,
993,8.00e-02,
994,8.00e-02,
995,2.40e-01,
996,3.20e-01,
997,8.00e-02,
998,2.40e-01,
999,8.00e-02,
1000,2.40e-01,
1001,8.00e-02,
1002,8.00e-02,
1003,2.40e-01,
1004,2.40e-01,
1005,8.00e-02,
1006,3.20e-01,
1007,8.00e-02,
1008,2.40e-01,
1009,8.00e-02,
1010,2.40e-01,
1011,8.00e-02,
1012,2.40e-01,
1013,8.00e-02,
1014,2.40e-01,
1015,0.00e+00,
1016,8.00e-02,
1017,3.20e-01,
1018,8.00e-02,
1019,3.20e-01,
1020,-8.00e-02,
1021,1.04e+00,
1022,8.80e-01,
1023,2.40e-01,
1024,4.80e-01,
1025,8.00e-02,
1026,2.40e-01,
1027,8.00e-02,
1028,2.40e-01,
1029,8.00e-02,
1030,2.40e-01,
1031,0.00e+00,
1032,2.40e-01,
1033,0.00e+00,
1034,2.40e-01,
1035,0.00e+00,
1036,0.00e+00,
1037,2.40e-01,
1038,2.40e-01,
1039,0.00e+00,
1040,2.40e-01,
1041,0.00e+00,
1042,0.00e+00,
1043,2.40e-01,
1044,2.40e-01,
1045,0.00e+00,
1046,0.00e+00,
1047,2.40e-01,
1048,0.00e+00,
1049,2.40e-01,
1050,2.40e-01,
1051,0.00e+00,
1052,0.00e+00,
1053,2.40e-01,
1054,0.00e+00,
1055,2.40e-01,
1056,2.40e-01,
1057,0.00e+00,
1058,8.00e-02,
1059,3.20e-01,
1060,8.00e-02,
1061,3.20e-01,
1062,8.00e-02,
1063,3.20e-01,
1064,2.40e-01,
1065,0.00e+00,
1066,2.40e-01,
1067,0.00e+00,
1068,2.40e-01,
1069,0.00e+00,
1070,2.40e-01,
1071,0.00e+00,
1072,2.40e-01,
1073,0.00e+00,
1074,2.40e-01,
1075,0.00e+00,
1076,0.00e+00,
1077,2.40e-01,
1078,0.00e+00,
1079,2.40e-01,
1080,2.40e-01,
1081,0.00e+00,
1082,2.40e-01,
1083,0.00e+00,
1084,0.00e+00,
1085,2.40e-01,
1086,0.00e+00,
1087,2.40e-01,
1088,0.00e+00,
1089,2.40e-01,
1090,0.00e+00,
1091,2.40e-01,
1092,0.00e+00,
1093,2.40e-01,
1094,0.00e+00,
1095,3.20e-01,
1096,8.00e-02,
1097,3.20e-01,
1098,3.20e-01,
1099,1.60e-01,
1100,3.20e-01,
1101,8.00e-02,
1102,3.20e-01,
1103,8.00e-02,
1104,2.40e-01,
1105,0.00e+00,
1106,2.40e-01,
1107,0.00e+00,
1108,0.00e+00,
1109,2.40e-01,
1110,0.00e+00,
1111,2.40e-01,
1112,0.00e+00,
1113,2.40e-01,
1114,0.00e+00,
1115,2.40e-01,
1116,0.00e+00,
1117,2.40e-01,
1118,0.00e+00,
1119,2.40e-01,
1120,0.00e+00,
1121,2.40e-01,
1122,0.00e+00,
1123,2.40e-01,
1124,0.00e+00,
1125,2.40e-01,
1126,2.40e-01,
1127,0.00e+00,
1128,0.00e+00,
1129,2.40e-01,
1130,0.00e+00,
1131,2.40e-01,
1132,0.00e+00,
1133,2.40e-01,
1134,2.40e-01,
1135,0.00e+00,
1136,0.00e+00,
1137,2.40e-01,
1138,0.00e+00,
1139,2.40e-01,
1140,0.00e+00,
1141,2.40e-01,
1142,0.00e+00,
1143,2.40e-01,
1144,0.00e+00,
1145,2.40e-01,
1146,0.00e+00,
1147,1.60e-01,
1148,0.00e+00,
1149,2.40e-01,
1150,0.00e+00,
1151,2.40e-01,
1152,0.00e+00,
1153,1.60e-01,
1154,0.00e+00,
1155,2.40e-01,
1156,0.00e+00,
1157,2.40e-01,
1158,0.00e+00,
1159,2.40e-01,
1160,0.00e+00,
1161,2.40e-01,
1162,0.00e+00,
1163,2.40e-01,
1164,0.00e+00,
1165,2.40e-01,
1166,2.40e-01,
1167,0.00e+00,
1168,2.40e-01,
1169,0.00e+00,
1170,0.00e+00,
1171,2.40e-01,
1172,1.60e-01,
1173,0.00e+00,
1174,0.00e+00,
1175,2.40e-01,
1176,0.00e+00,
1177,2.40e-01,
1178,0.00e+00,
1179,2.40e-01,
1180,0.00e+00,
1181,2.40e-01,
1182,0.00e+00,
1183,2.40e-01,
1184,2.40e-01,
1185,0.00e+00,
1186,2.40e-01,
1187,0.00e+00,
1188,0.00e+00,
1189,2.40e-01,
1190,0.00e+00,
1191,2.40e-01,
1192,0.00e+00,
1193,2.40e-01,
1194,2.40e-01,
1195,0.00e+00,
1196,2.40e-01,
1197,0.00e+00,
1198,2.40e-01,
1199,0.00e+00,
