Iron1/iron1_t2.csv

X,CH1,Start,Increment,
Sequence,Volt,-2.000000e-04,1.000000e-06
0,0.00e+00,
1,3.20e-01,
2,3.20e-01,
3,0.00e+00,
4,4.00e-01,
5,8.00e-02,
6,3.20e-01,
7,0.00e+00,
8,3.20e-01,
9,0.00e+00,
10,0.00e+00,
11,4.00e-01,
12,4.00e-01,
13,0.00e+00,
14,3.20e-01,
15,0.00e+00,
16,3.20e-01,
17,0.00e+00,
18,3.20e-01,
19,0.00e+00,
20,3.20e-01,
21,0.00e+00,
22,3.20e-01,
23,0.00e+00,
24,0.00e+00,
25,3.20e-01,
26,3.20e-01,
27,0.00e+00,
28,0.00e+00,
29,3.20e-01,
30,3.20e-01,
31,0.00e+00,
32,0.00e+00,
33,3.20e-01,
34,3.20e-01,
35,0.00e+00,
36,0.00e+00,
37,3.20e-01,
38,8.00e-02,
39,4.00e-01,
40,8.00e-02,
41,4.00e-01,
42,8.00e-02,
43,4.00e-01,
44,8.00e-02,
45,4.00e-01,
46,8.00e-02,
47,4.00e-01,
48,8.00e-02,
49,4.00e-01,
50,4.00e-01,
51,0.00e+00,
52,3.20e-01,
53,0.00e+00,
54,8.00e-02,
55,4.00e-01,
56,3.20e-01,
57,0.00e+00,
58,3.20e-01,
59,0.00e+00,
60,8.00e-02,
61,3.20e-01,
62,0.00e+00,
63,3.20e-01,
64,3.20e-01,
65,0.00e+00,
66,3.20e-01,
67,0.00e+00,
68,3.20e-01,
69,0.00e+00,
70,3.20e-01,
71,0.00e+00,
72,3.20e-01,
73,0.00e+00,
74,3.20e-01,
75,0.00e+00,
76,3.20e-01,
77,0.00e+00,
78,3.20e-01,
79,0.00e+00,
80,3.20e-01,
81,0.00e+00,
82,0.00e+00,
83,3.20e-01,
84,3.20e-01,
85,0.00e+00,
86,3.20e-01,
87,0.00e+00,
88,3.20e-01,
89,0.00e+00,
90,0.00e+00,
91,3.20e-01,
92,0.00e+00,
93,3.20e-01,
94,3.20e-01,
95,0.00e+00,
96,3.20e-01,
97,0.00e+00,
98,3.20e-01,
99,0.00e+00,
100,0.00e+00,
101,4.00e-01,
102,3.20e-01,
103,0.00e+00,
104,3.20e-01,
105,0.00e+00,
106,3.20e-01,
107,0.00e+00,
108,3.20e-01,
109,0.00e+00,
110,3.20e-01,
111,0.00e+00,
112,3.20e-01,
113,0.00e+00,
114,3.20e-01,
115,0.00e+00,
116,0.00e+00,
117,3.20e-01,
118,3.20e-01,
119,0.00e+00,
120,0.00e+00,
121,3.20e-01,
122,3.20e-01,
123,0.00e+00,
124,3.20e-01,
125,0.00e+00,
126,3.20e-01,
127,0.00e+00,
128,3.20e-01,
129,0.00e+00,
130,0.00e+00,
131,3.20e-01,
132,3.20e-01,
133,0.00e+00,
134,3.20e-01,
135,0.00e+00,
136,0.00e+00,
137,4.00e-01,
138,8.00e-02,
139,4.00e-01,
140,8.00e-02,
141,4.00e-01,
142,4.00e-01,
143,8.00e-02,
144,4.00e-01,
145,0.00e+00,
146,4.00e-01,
147,0.00e+00,
148,4.00e-01,
149,0.00e+00,
150,3.20e-01,
151,0.00e+00,
152,0.00e+00,
153,3.20e-01,
154,3.20e-01,
155,8.00e-02,
156,3.20e-01,
157,0.00e+00,
158,3.20e-01,
159,0.00e+00,
160,3.20e-01,
161,0.00e+00,
162,3.20e-01,
163,0.00e+00,
164,3.20e-01,
165,0.00e+00,
166,3.20e-01,
167,0.00e+00,
168,3.20e-01,
169,0.00e+00,
170,3.20e-01,
171,0.00e+00,
172,3.20e-01,
173,0.00e+00,
174,0.00e+00,
175,3.20e-01,
176,0.00e+00,
177,3.20e-01,
178,3.20e-01,
179,0.00e+00,
180,3.20e-01,
181,0.00e+00,
182,0.00e+00,
183,3.20e-01,
184,0.00e+00,
185,3.20e-01,
186,4.00e-01,
187,0.00e+00,
188,3.20e-01,
189,0.00e+00,
190,3.20e-01,
191,0.00e+00,
192,0.00e+00,
193,3.20e-01,
194,0.00e+00,
195,4.00e-01,
196,8.00e-02,
197,4.00e-01,
198,8.00e-02,
199,4.00e-01,
200,3.20e-01,
201,8.00e-02,
202,4.00e-01,
203,0.00e+00,
204,3.20e-01,
205,0.00e+00,
206,0.00e+00,
207,3.20e-01,
208,2.40e-01,
209,-8.00e-02,
210,2.40e-01,
211,-8.00e-02,
212,1.60e-01,
213,-8.00e-02,
214,-8.00e-02,
215,1.60e-01,
216,1.60e-01,
217,-8.00e-02,
218,-8.00e-02,
219,2.40e-01,
220,0.00e+00,
221,4.80e-01,
222,3.20e-01,
223,1.04e+00,
224,8.80e-01,
225,1.76e+00,
226,1.68e+00,
227,2.64e+00,
228,2.48e+00,
229,3.52e+00,
230,3.44e+00,
231,4.40e+00,
232,4.32e+00,
233,5.36e+00,
234,5.20e+00,
235,6.08e+00,
236,6.08e+00,
237,6.80e+00,
238,6.80e+00,
239,7.36e+00,
240,7.28e+00,
241,7.84e+00,
242,7.76e+00,
243,8.08e+00,
244,8.00e+00,
245,8.40e+00,
246,8.24e+00,
247,8.64e+00,
248,8.40e+00,
249,8.72e+00,
250,8.64e+00,
251,8.80e+00,
252,8.64e+00,
253,8.88e+00,
254,8.72e+00,
255,8.96e+00,
256,8.80e+00,
257,8.96e+00,
258,8.80e+00,
259,8.96e+00,
260,8.96e+00,
261,8.88e+00,
262,8.96e+00,
263,8.80e+00,
264,8.96e+00,
265,8.80e+00,
266,8.80e+00,
267,8.96e+00,
268,8.96e+00,
269,8.72e+00,
270,8.72e+00,
271,8.88e+00,
272,8.80e+00,
273,8.64e+00,
274,8.80e+00,
275,8.56e+00,
276,8.56e+00,
277,8.72e+00,
278,8.64e+00,
279,8.40e+00,
280,8.56e+00,
281,8.32e+00,
282,8.32e+00,
283,8.48e+00,
284,8.40e+00,
285,8.24e+00,
286,8.40e+00,
287,8.16e+00,
288,8.32e+00,
289,8.08e+00,
290,8.24e+00,
291,8.08e+00,
292,8.08e+00,
293,7.92e+00,
294,8.00e+00,
295,7.84e+00,
296,7.92e+00,
297,7.76e+00,
298,7.76e+00,
299,7.92e+00,
300,7.84e+00,
301,7.68e+00,
302,7.68e+00,
303,7.84e+00,
304,7.52e+00,
305,7.76e+00,
306,7.60e+00,
307,7.44e+00,
308,7.52e+00,
309,7.36e+00,
310,7.52e+00,
311,7.28e+00,
312,7.44e+00,
313,7.28e+00,
314,7.36e+00,
315,7.12e+00,
316,7.20e+00,
317,7.04e+00,
318,7.20e+00,
319,7.04e+00,
320,7.12e+00,
321,6.96e+00,
322,7.04e+00,
323,6.88e+00,
324,6.96e+00,
325,6.80e+00,
326,6.80e+00,
327,6.96e+00,
328,6.64e+00,
329,6.88e+00,
330,6.72e+00,
331,6.64e+00,
332,6.72e+00,
333,6.56e+00,
334,6.64e+00,
335,6.48e+00,
336,6.64e+00,
337,6.40e+00,
338,6.40e+00,
339,6.56e+00,
340,6.48e+00,
341,6.24e+00,
342,6.32e+00,
343,6.24e+00,
344,6.32e+00,
345,6.16e+00,
346,6.24e+00,
347,6.08e+00,
348,6.08e+00,
349,6.24e+00,
350,6.16e+00,
351,6.00e+00,
352,6.08e+00,
353,5.92e+00,
354,6.00e+00,
355,5.76e+00,
356,5.76e+00,
357,6.00e+00,
358,5.84e+00,
359,5.68e+00,
360,5.76e+00,
361,5.68e+00,
362,5.76e+00,
363,5.60e+00,
364,5.60e+00,
365,5.76e+00,
366,5.68e+00,
367,5.52e+00,
368,5.52e+00,
369,5.68e+00,
370,5.60e+00,
371,5.36e+00,
372,5.44e+00,
373,5.28e+00,
374,5.44e+00,
375,5.28e+00,
376,5.36e+00,
377,5.20e+00,
378,5.28e+00,
379,5.12e+00,
380,5.12e+00,
381,5.28e+00,
382,5.20e+00,
383,5.04e+00,
384,5.12e+00,
385,4.88e+00,
386,5.04e+00,
387,4.88e+00,
388,4.96e+00,
389,4.80e+00,
390,4.80e+00,
391,4.96e+00,
392,4.88e+00,
393,4.72e+00,
394,4.88e+00,
395,4.64e+00,
396,4.64e+00,
397,4.80e+00,
398,4.72e+00,
399,4.48e+00,
400,4.48e+00,
401,4.72e+00,
402,4.48e+00,
403,4.64e+00,
404,4.56e+00,
405,4.40e+00,
406,4.56e+00,
407,4.32e+00,
408,4.32e+00,
409,4.48e+00,
410,4.40e+00,
411,4.24e+00,
412,4.24e+00,
413,4.40e+00,
414,4.32e+00,
415,4.16e+00,
416,4.16e+00,
417,4.32e+00,
418,4.24e+00,
419,4.00e+00,
420,4.00e+00,
421,4.24e+00,
422,4.16e+00,
423,4.00e+00,
424,4.08e+00,
425,3.92e+00,
426,3.92e+00,
427,4.08e+00,
428,4.08e+00,
429,3.92e+00,
430,4.00e+00,
431,3.84e+00,
432,4.00e+00,
433,3.76e+00,
434,3.92e+00,
435,3.76e+00,
436,3.92e+00,
437,3.68e+00,
438,3.84e+00,
439,3.68e+00,
440,3.60e+00,
441,3.84e+00,
442,3.60e+00,
443,3.84e+00,
444,3.68e+00,
445,3.52e+00,
446,3.68e+00,
447,3.52e+00,
448,3.52e+00,
449,3.68e+00,
450,3.60e+00,
451,3.44e+00,
452,3.44e+00,
453,3.60e+00,
454,3.60e+00,
455,3.44e+00,
456,3.60e+00,
457,3.36e+00,
458,3.36e+00,
459,3.52e+00,
460,3.52e+00,
461,3.28e+00,
462,3.44e+00,
463,3.28e+00,
464,3.28e+00,
465,3.44e+00,
466,3.44e+00,
467,3.12e+00,
468,3.12e+00,
469,3.28e+00,
470,3.28e+00,
471,3.12e+00,
472,3.36e+00,
473,3.04e+00,
474,3.04e+00,
475,3.28e+00,
476,3.04e+00,
477,3.20e+00,
478,3.20e+00,
479,2.96e+00,
480,2.96e+00,
481,3.12e+00,
482,3.12e+00,
483,2.88e+00,
484,3.12e+00,
485,2.88e+00,
486,2.88e+00,
487,3.04e+00,
488,2.88e+00,
489,3.04e+00,
490,3.04e+00,
491,2.80e+00,
492,3.04e+00,
493,2.72e+00,
494,2.96e+00,
495,2.72e+00,
496,2.96e+00,
497,2.64e+00,
498,2.64e+00,
499,2.88e+00,
500,2.64e+00,
501,2.80e+00,
502,2.80e+00,
503,2.56e+00,
504,2.56e+00,
505,2.80e+00,
506,2.56e+00,
507,2.72e+00,
508,2.72e+00,
509,2.48e+00,
510,2.72e+00,
511,2.48e+00,
512,2.56e+00,
513,2.48e+00,
514,2.48e+00,
515,2.72e+00,
516,2.48e+00,
517,2.64e+00,
518,2.48e+00,
519,2.64e+00,
520,2.64e+00,
521,2.40e+00,
522,2.64e+00,
523,2.40e+00,
524,2.40e+00,
525,2.64e+00,
526,2.40e+00,
527,2.64e+00,
528,2.56e+00,
529,2.24e+00,
530,2.56e+00,
531,2.24e+00,
532,2.24e+00,
533,2.40e+00,
534,2.24e+00,
535,2.48e+00,
536,2.16e+00,
537,2.48e+00,
538,2.40e+00,
539,2.16e+00,
540,2.16e+00,
541,2.40e+00,
542,2.32e+00,
543,2.08e+00,
544,2.08e+00,
545,2.32e+00,
546,2.08e+00,
547,2.32e+00,
548,2.08e+00,
549,2.32e+00,
550,2.24e+00,
551,2.00e+00,
552,2.24e+00,
553,2.00e+00,
554,2.24e+00,
555,2.00e+00,
556,2.00e+00,
557,2.24e+00,
558,2.00e+00,
559,2.16e+00,
560,2.16e+00,
561,1.92e+00,
562,2.16e+00,
563,1.84e+00,
564,2.16e+00,
565,1.84e+00,
566,1.84e+00,
567,2.16e+00,
568,2.08e+00,
569,1.76e+00,
570,1.76e+00,
571,2.08e+00,
572,1.76e+00,
573,2.08e+00,
574,2.00e+00,
575,1.68e+00,
576,1.92e+00,
577,1.68e+00,
578,1.92e+00,
579,1.68e+00,
580,1.68e+00,
581,1.92e+00,
582,1.92e+00,
583,1.60e+00,
584,1.84e+00,
585,1.60e+00,
586,1.84e+00,
587,1.60e+00,
588,1.84e+00,
589,1.60e+00,
590,1.84e+00,
591,1.60e+00,
592,1.60e+00,
593,1.84e+00,
594,1.84e+00,
595,1.60e+00,
596,1.60e+00,
597,1.84e+00,
598,1.76e+00,
599,1.52e+00,
600,1.76e+00,
601,1.44e+00,
602,1.76e+00,
603,1.52e+00,
604,1.76e+00,
605,1.52e+00,
606,1.52e+00,
607,1.76e+00,
608,1.68e+00,
609,1.44e+00,
610,1.68e+00,
611,1.36e+00,
612,1.68e+00,
613,1.36e+00,
614,1.68e+00,
615,1.36e+00,
616,1.68e+00,
617,1.36e+00,
618,1.36e+00,
619,1.68e+00,
620,1.36e+00,
621,1.60e+00,
622,1.52e+00,
623,1.28e+00,
624,1.52e+00,
625,1.28e+00,
626,1.52e+00,
627,1.28e+00,
628,1.28e+00,
629,1.52e+00,
630,1.28e+00,
631,1.52e+00,
632,1.52e+00,
633,1.20e+00,
634,1.20e+00,
635,1.52e+00,
636,1.44e+00,
637,1.20e+00,
638,1.44e+00,
639,1.20e+00,
640,1.44e+00,
641,1.20e+00,
642,1.44e+00,
643,1.20e+00,
644,1.20e+00,
645,1.44e+00,
646,1.44e+00,
647,1.12e+00,
648,1.36e+00,
649,1.12e+00,
650,1.36e+00,
651,1.12e+00,
652,1.36e+00,
653,1.12e+00,
654,1.36e+00,
655,1.12e+00,
656,1.12e+00,
657,1.36e+00,
658,1.36e+00,
659,9.60e-01,
660,1.28e+00,
661,9.60e-01,
662,9.60e-01,
663,1.28e+00,
664,1.28e+00,
665,9.60e-01,
666,1.28e+00,
667,1.04e+00,
668,1.28e+00,
669,9.60e-01,
670,9.60e-01,
671,1.28e+00,
672,1.28e+00,
673,8.80e-01,
674,1.20e+00,
675,8.80e-01,
676,8.80e-01,
677,1.20e+00,
678,1.20e+00,
679,8.80e-01,
680,1.20e+00,
681,8.80e-01,
682,1.20e+00,
683,8.80e-01,
684,8.80e-01,
685,1.20e+00,
686,8.80e-01,
687,1.12e+00,
688,8.80e-01,
689,1.12e+00,
690,1.12e+00,
691,8.00e-01,
692,1.04e+00,
693,8.00e-01,
694,1.04e+00,
695,8.00e-01,
696,1.04e+00,
697,8.00e-01,
698,8.00e-01,
699,1.04e+00,
700,8.00e-01,
701,1.04e+00,
702,8.00e-01,
703,1.04e+00,
704,8.00e-01,
705,1.04e+00,
706,8.00e-01,
707,1.04e+00,
708,8.00e-01,
709,1.04e+00,
710,1.04e+00,
711,7.20e-01,
712,9.60e-01,
713,7.20e-01,
714,9.60e-01,
715,7.20e-01,
716,9.60e-01,
717,7.20e-01,
718,7.20e-01,
719,9.60e-01,
720,7.20e-01,
721,9.60e-01,
722,8.80e-01,
723,5.60e-01,
724,6.40e-01,
725,9.60e-01,
726,9.60e-01,
727,6.40e-01,
728,8.80e-01,
729,5.60e-01,
730,8.80e-01,
731,6.40e-01,
732,8.80e-01,
733,5.60e-01,
734,8.80e-01,
735,5.60e-01,
736,5.60e-01,
737,8.80e-01,
738,8.80e-01,
739,5.60e-01,
740,8.80e-01,
741,4.80e-01,
742,8.80e-01,
743,4.80e-01,
744,4.80e-01,
745,8.00e-01,
746,8.00e-01,
747,4.80e-01,
748,8.00e-01,
749,4.80e-01,
750,4.80e-01,
751,8.00e-01,
752,4.80e-01,
753,8.00e-01,
754,4.80e-01,
755,8.00e-01,
756,4.80e-01,
757,8.00e-01,
758,4.80e-01,
759,8.00e-01,
760,4.80e-01,
761,7.20e-01,
762,4.80e-01,
763,8.00e-01,
764,4.80e-01,
765,8.00e-01,
766,4.80e-01,
767,7.20e-01,
768,6.40e-01,
769,4.00e-01,
770,4.00e-01,
771,6.40e-01,
772,4.00e-01,
773,6.40e-01,
774,6.40e-01,
775,4.00e-01,
776,4.00e-01,
777,6.40e-01,
778,4.00e-01,
779,6.40e-01,
780,4.00e-01,
781,6.40e-01,
782,6.40e-01,
783,3.20e-01,
784,5.60e-01,
785,3.20e-01,
786,5.60e-01,
787,3.20e-01,
788,3.20e-01,
789,5.60e-01,
790,3.20e-01,
791,5.60e-01,
792,3.20e-01,
793,5.60e-01,
794,3.20e-01,
795,5.60e-01,
796,3.20e-01,
797,5.60e-01,
798,3.20e-01,
799,5.60e-01,
800,3.20e-01,
801,5.60e-01,
802,5.60e-01,
803,2.40e-01,
804,2.40e-01,
805,5.60e-01,
806,4.80e-01,
807,2.40e-01,
808,4.80e-01,
809,2.40e-01,
810,2.40e-01,
811,4.80e-01,
812,2.40e-01,
813,4.80e-01,
814,2.40e-01,
815,4.80e-01,
816,2.40e-01,
817,4.80e-01,
818,2.40e-01,
819,4.80e-01,
820,2.40e-01,
821,4.80e-01,
822,2.40e-01,
823,5.60e-01,
824,3.20e-01,
825,5.60e-01,
826,3.20e-01,
827,5.60e-01,
828,5.60e-01,
829,2.40e-01,
830,3.20e-01,
831,5.60e-01,
832,5.60e-01,
833,2.40e-01,
834,4.80e-01,
835,2.40e-01,
836,2.40e-01,
837,4.80e-01,
838,2.40e-01,
839,4.80e-01,
840,2.40e-01,
841,4.80e-01,
842,2.40e-01,
843,4.80e-01,
844,4.80e-01,
845,1.60e-01,
846,8.00e-02,
847,4.00e-01,
848,1.60e-01,
849,4.80e-01,
850,2.40e-01,
851,4.80e-01,
852,2.40e-01,
853,4.80e-01,
854,4.80e-01,
855,1.60e-01,
856,4.00e-01,
857,8.00e-02,
858,4.00e-01,
859,8.00e-02,
860,8.00e-02,
861,4.00e-01,
862,4.00e-01,
863,8.00e-02,
864,4.00e-01,
865,8.00e-02,
866,4.00e-01,
867,8.00e-02,
868,4.00e-01,
869,8.00e-02,
870,4.00e-01,
871,8.00e-02,
872,4.00e-01,
873,8.00e-02,
874,4.00e-01,
875,8.00e-02,
876,4.00e-01,
877,8.00e-02,
878,8.00e-02,
879,4.00e-01,
880,8.00e-02,
881,4.00e-01,
882,8.00e-02,
883,4.00e-01,
884,4.00e-01,
885,8.00e-02,
886,4.00e-01,
887,8.00e-02,
888,4.00e-01,
889,8.00e-02,
890,4.00e-01,
891,8.00e-02,
892,8.00e-02,
893,4.00e-01,
894,8.00e-02,
895,4.00e-01,
896,8.00e-02,
897,4.00e-01,
898,8.00e-02,
899,4.00e-01,
900,8.00e-02,
901,4.00e-01,
902,4.00e-01,
903,0.00e+00,
904,8.00e-02,
905,4.00e-01,
906,8.00e-02,
907,4.00e-01,
908,4.00e-01,
909,8.00e-02,
910,8.00e-02,
911,4.00e-01,
912,8.00e-02,
913,4.00e-01,
914,3.20e-01,
915,0.00e+00,
916,0.00e+00,
917,4.00e-01,
918,8.00e-02,
919,4.00e-01,
920,8.00e-02,
921,4.00e-01,
922,8.00e-02,
923,4.00e-01,
924,8.00e-02,
925,4.00e-01,
926,8.00e-02,
927,4.00e-01,
928,0.00e+00,
929,4.00e-01,
930,4.00e-01,
931,0.00e+00,
932,0.00e+00,
933,4.00e-01,
934,4.00e-01,
935,0.00e+00,
936,0.00e+00,
937,4.00e-01,
938,0.00e+00,
939,3.20e-01,
940,0.00e+00,
941,3.20e-01,
942,0.00e+00,
943,3.20e-01,
944,8.00e-02,
945,3.20e-01,
946,3.20e-01,
947,0.00e+00,
948,0.00e+00,
949,3.20e-01,
950,3.20e-01,
951,0.00e+00,
952,3.20e-01,
953,0.00e+00,
954,3.20e-01,
955,0.00e+00,
956,0.00e+00,
957,3.20e-01,
958,3.20e-01,
959,0.00e+00,
960,3.20e-01,
961,0.00e+00,
962,0.00e+00,
963,3.20e-01,
964,3.20e-01,
965,0.00e+00,
966,3.20e-01,
967,0.00e+00,
968,3.20e-01,
969,0.00e+00,
970,3.20e-01,
971,0.00e+00,
972,0.00e+00,
973,3.20e-01,
974,0.00e+00,
975,3.20e-01,
976,3.20e-01,
977,0.00e+00,
978,0.00e+00,
979,3.20e-01,
980,0.00e+00,
981,3.20e-01,
982,0.00e+00,
983,3.20e-01,
984,3.20e-01,
985,0.00e+00,
986,0.00e+00,
987,3.20e-01,
988,0.00e+00,
989,3.20e-01,
990,3.20e-01,
991,0.00e+00,
992,0.00e+00,
993,3.20e-01,
994,3.20e-01,
995,0.00e+00,
996,3.20e-01,
997,0.00e+00,
998,3.20e-01,
999,0.00e+00,
1000,3.20e-01,
1001,0.00e+00,
1002,3.20e-01,
1003,0.00e+00,
1004,3.20e-01,
1005,0.00e+00,
1006,0.00e+00,
1007,3.20e-01,
1008,3.20e-01,
1009,0.00e+00,
1010,0.00e+00,
1011,3.20e-01,
1012,3.20e-01,
1013,0.00e+00,
1014,0.00e+00,
1015,3.20e-01,
1016,0.00e+00,
1017,3.20e-01,
1018,0.00e+00,
1019,4.00e-01,
1020,8.00e-02,
1021,4.00e-01,
1022,8.00e-02,
1023,4.00e-01,
1024,8.00e-02,
1025,4.00e-01,
1026,8.00e-02,
1027,4.00e-01,
1028,4.00e-01,
1029,0.00e+00,
1030,0.00e+00,
1031,3.20e-01,
1032,3.20e-01,
1033,0.00e+00,
1034,3.20e-01,
1035,0.00e+00,
1036,3.20e-01,
1037,0.00e+00,
1038,3.20e-01,
1039,0.00e+00,
1040,0.00e+00,
1041,3.20e-01,
1042,0.00e+00,
1043,3.20e-01,
1044,3.20e-01,
1045,0.00e+00,
1046,0.00e+00,
1047,3.20e-01,
1048,0.00e+00,
1049,3.20e-01,
1050,0.00e+00,
1051,3.20e-01,
1052,3.20e-01,
1053,0.00e+00,
1054,3.20e-01,
1055,0.00e+00,
1056,3.20e-01,
1057,0.00e+00,
1058,3.20e-01,
1059,0.00e+00,
1060,0.00e+00,
1061,3.20e-01,
1062,3.20e-01,
1063,0.00e+00,
1064,0.00e+00,
1065,3.20e-01,
1066,0.00e+00,
1067,3.20e-01,
1068,3.20e-01,
1069,0.00e+00,
1070,3.20e-01,
1071,0.00e+00,
1072,0.00e+00,
1073,3.20e-01,
1074,0.00e+00,
1075,3.20e-01,
1076,3.20e-01,
1077,0.00e+00,
1078,3.20e-01,
1079,0.00e+00,
1080,0.00e+00,
1081,3.20e-01,
1082,3.20e-01,
1083,0.00e+00,
1084,3.20e-01,
1085,0.00e+00,
1086,3.20e-01,
1087,0.00e+00,
1088,0.00e+00,
1089,3.20e-01,
1090,0.00e+00,
1091,3.20e-01,
1092,0.00e+00,
1093,3.20e-01,
1094,0.00e+00,
1095,3.20e-01,
1096,3.20e-01,
1097,0.00e+00,
1098,0.00e+00,
1099,3.20e-01,
1100,0.00e+00,
1101,3.20e-01,
1102,0.00e+00,
1103,3.20e-01,
1104,0.00e+00,
1105,3.20e-01,
1106,0.00e+00,
1107,3.20e-01,
1108,0.00e+00,
1109,3.20e-01,
1110,0.00e+00,
1111,3.20e-01,
1112,0.00e+00,
1113,3.20e-01,
1114,0.00e+00,
1115,3.20e-01,
1116,0.00e+00,
1117,3.20e-01,
1118,8.00e-02,
1119,4.00e-01,
1120,4.00e-01,
1121,8.00e-02,
1122,8.00e-02,
1123,4.00e-01,
1124,8.00e-02,
1125,4.00e-01,
1126,0.00e+00,
1127,4.00e-01,
1128,3.20e-01,
1129,0.00e+00,
1130,3.20e-01,
1131,0.00e+00,
1132,3.20e-01,
1133,0.00e+00,
1134,0.00e+00,
1135,3.20e-01,
1136,3.20e-01,
1137,0.00e+00,
1138,0.00e+00,
1139,3.20e-01,
1140,0.00e+00,
1141,3.20e-01,
1142,3.20e-01,
1143,0.00e+00,
1144,3.20e-01,
1145,0.00e+00,
1146,3.20e-01,
1147,0.00e+00,
1148,3.20e-01,
1149,0.00e+00,
1150,3.20e-01,
1151,0.00e+00,
1152,0.00e+00,
1153,3.20e-01,
1154,0.00e+00,
1155,3.20e-01,
1156,0.00e+00,
1157,3.20e-01,
1158,3.20e-01,
1159,0.00e+00,
1160,0.00e+00,
1161,3.20e-01,
1162,3.20e-01,
1163,0.00e+00,
1164,0.00e+00,
1165,3.20e-01,
1166,0.00e+00,
1167,3.20e-01,
1168,0.00e+00,
1169,3.20e-01,
1170,0.00e+00,
1171,3.20e-01,
1172,3.20e-01,
1173,0.00e+00,
1174,3.20e-01,
1175,0.00e+00,
1176,0.00e+00,
1177,3.20e-01,
1178,0.00e+00,
1179,3.20e-01,
1180,0.00e+00,
1181,3.20e-01,
1182,0.00e+00,
1183,3.20e-01,
1184,0.00e+00,
1185,3.20e-01,
1186,0.00e+00,
1187,3.20e-01,
1188,0.00e+00,
1189,3.20e-01,
1190,0.00e+00,
1191,3.20e-01,
1192,0.00e+00,
1193,3.20e-01,
1194,0.00e+00,
1195,3.20e-01,
1196,0.00e+00,
1197,3.20e-01,
1198,3.20e-01,
1199,0.00e+00,
